date,read
2022-02-12 00:00:00,0.1187
2022-02-12 00:30:00,0.1437
2022-02-12 01:00:00,0.1312
2022-02-12 01:30:00,0.1187
2022-02-12 02:00:00,0.7562
2022-02-12 02:30:00,0.1125
2022-02-12 03:00:00,0.125
2022-02-12 03:30:00,0.1
2022-02-12 04:00:00,0.0875
2022-02-12 04:30:00,0.1062
2022-02-12 05:00:00,0.1
2022-02-12 05:30:00,0.3437
2022-02-12 06:00:00,0.3562
2022-02-12 06:30:00,0.0937
2022-02-12 07:00:00,0.1062
2022-02-12 07:30:00,0.175
2022-02-12 08:00:00,0.1687
2022-02-12 08:30:00,0.1625
